{
    "MINIMAL_BLOCK_DELAY": "10",
    "DELAY_INCREMENT_PER_ROUND": "5",
    "BLOCKS_PER_CYCLE": "24,576",
    "BLOCKS_PER_STAKE_SNAPSHOT": "1024",
    "BAKING_REWARD_FIXED_PORTION": "5",
    "BAKING_REWARD_BONUS_PER_SLOT": "0.002143",
    "BAKING_REWARD_BONUS_TOTAL": "5",
    "MAX_TEZ_REWARD_PER_BLOCK": "20",
    "MAX_TEZ_REWARD_BAKER": "10",
    "MAX_TEZ_REWARD_ATTESTATION": "10",
    "ATTESTING_REWARD_PER_SLOT": "0.001428",
    "HARD_GAS_LIMIT_PER_BLOCK": "1,733,333",
    "HARD_GAS_LIMIT_PER_OPERATION": "1,040,000",
    "BLOCK_FINALITY": "2",
    "TIME_FINALITY": "20",

    "CURRENT_PROTOCOL": "paris",
    "CURRENT_PROTOCOL_TRIPLET": "019",
    "CURRENT_PROTOCOL_SHORT_HASH": "PsParisC",
    "PREVIOUS_PROTOCOL_SHORT_HASH": "Proxford",
    "CURRENT_TESTNET": "parisCnet",

    "CURRENT_OCTEZ_VERSION": "20.2",
    "CURRENT_OCTEZ_VERSION_MAJOR": "20"
}
